%!PS-Adobe-3.0
%%Creator: Ligplot v.4.1
%%DocumentNeededResources: font Times-Roman Symbol
%%BoundingBox: (atend)
%%Pages: 1
%%Title: CB1italiangroup.pdb
%%EndComments
%%BeginProlog
/L { moveto lineto stroke } bind def
/G { gsave } bind def
/W { setlinewidth } bind def
/D { setdash } bind def
/Col { setrgbcolor } bind def
/Zero_linewidth { 0.0 } def
/Sphcol { 1 setgray } def
/Sphere {  newpath 3 copy 0 360 arc gsave Sphcol fill 0
  setgray 0.5 setlinewidth
  3 copy 0.94 mul 260 350 arc stroke 3 copy 0.87 mul 275 335 arc stroke
  3 copy 0.79 mul 295 315 arc stroke 3 copy 0.8 mul 115 135 arc
  3 copy 0.6 mul 135 115 arcn closepath gsave 1 setgray fill grestore stroke
  3 copy 0.7 mul 115 135 arc stroke 3 copy 0.6 mul 124.9 125 arc
  0.8 mul 125 125.1 arc stroke grestore stroke } bind def
/Grey00 {   0.00 setgray } def
/Grey01 {   0.10 setgray } def
/Grey02 {   0.20 setgray } def
/Grey03 {   0.30 setgray } def
/Grey04 {   0.40 setgray } def
/Grey05 {   0.50 setgray } def
/Grey06 {   0.60 setgray } def
/Grey07 {   0.70 setgray } def
/Grey08 {   0.80 setgray } def
/Grey09 {   0.90 setgray } def
/Grey10 {   1.00 setgray } def
/BLACK__________ {   0.0000   0.0000   0.0000 setrgbcolor } def
/WHITE__________ {   1.0000   1.0000   1.0000 setrgbcolor } def
/RED____________ {   1.0000   0.0000   0.0000 setrgbcolor } def
/GREEN__________ {   0.0000   1.0000   0.0000 setrgbcolor } def
/BLUE___________ {   0.0000   0.0000   1.0000 setrgbcolor } def
/YELLOW_________ {   1.0000   1.0000   0.0000 setrgbcolor } def
/ORANGE_________ {   0.8000   0.5000   0.0000 setrgbcolor } def
/LIME_GREEN_____ {   0.5000   1.0000   0.0000 setrgbcolor } def
/PURPLE_________ {   0.5000   0.0000   1.0000 setrgbcolor } def
/CYAN___________ {   0.5000   1.0000   1.0000 setrgbcolor } def
/PINK___________ {   1.0000   0.5000   1.0000 setrgbcolor } def
/SKY_BLUE_______ {   0.3000   0.8000   1.0000 setrgbcolor } def
/CREAM__________ {   1.0000   1.0000   0.7000 setrgbcolor } def
/TURQUOISE______ {   0.0000   1.0000   1.0000 setrgbcolor } def
/LILAC__________ {   1.0000   0.0000   1.0000 setrgbcolor } def
/BRICK_RED______ {   0.8000   0.0000   0.0000 setrgbcolor } def
/BROWN__________ {   0.5000   0.0000   0.0000 setrgbcolor } def
/LIGHT_GREY_____ {   0.9700   0.9700   0.9700 setrgbcolor } def
/OLIVE_GREEN____ {   0.1000   0.5000   0.0000 setrgbcolor } def
/Background_col     { WHITE__________ } def
/Ligbond_colour     { PURPLE_________ } def
/Nligbond_colour    { ORANGE_________ } def
/Hbond_colour       { OLIVE_GREEN____ } def
/Ext_bond_colour    { PURPLE_________ } def
/Hydrophobic_col    { BRICK_RED______ } def
/Accessib_min       { ORANGE_________ } def
/Accessib_max       { YELLOW_________ } def
/Nitrogen_colour    { BLUE___________ } def
/Oxygen_colour      { RED____________ } def
/Carbon_colour      { BLACK__________ } def
/Sulphur_colour     { YELLOW_________ } def
/Water_colour       { TURQUOISE______ } def
/Phosphorus_colour  { PURPLE_________ } def
/Iron_colour        { PINK___________ } def
/Other_colour       { LIME_GREEN_____ } def
/Atom_edge_col      { BLACK__________ } def
/Simpleres_col      { BLACK__________ } def
/Title_colour       { BLACK__________ } def
/Key_Text_colour    { BLACK__________ } def
/Ligresname_col     { BLUE___________ } def
/Nligresname_col    { BRICK_RED______ } def
/Watername_col      { PURPLE_________ } def
/Hydrophname_col    { BLACK__________ } def
/Ligatmname_col     { BLACK__________ } def
/Nligatmname_col    { BLACK__________ } def
/HBlength_col       { OLIVE_GREEN____ } def
/Title_size {   20.000 } def
/Poly3 { moveto lineto lineto fill grestore } bind def
/Pl3 { 6 copy Poly3 moveto moveto moveto closepath stroke } bind def
/Pline3 { 6 copy Poly3 moveto lineto lineto closepath stroke } bind def
/Poly4 { moveto lineto lineto lineto fill grestore } bind def
/Pl4 { 8 copy Poly4 moveto moveto moveto moveto closepath stroke } bind def
/Pline4 { 8 copy Poly4 moveto lineto lineto lineto closepath stroke } bind def
/Circol { 1 setgray } def
/Circle { gsave newpath 0 360 arc gsave Circol fill grestore stroke grestore } bind def
/Ucircle { gsave newpath 0 360 arc gsave Circol fill grestore grestore } bind def
/Arc { newpath arc stroke newpath } bind def
/Print { /Times-Roman findfont exch scalefont setfont show } bind def
/Gprint { /Symbol findfont exch scalefont setfont show } bind def
/Font { /Times-Roman findfont } bind def
/Gfont { /Symbol findfont } bind def
/Fprint { scalefont setfont show } bind def
/Center {
  dup /Times-Roman findfont exch scalefont setfont
  exch stringwidth pop -2 div exch -3 div rmoveto
 } bind def
/CenterRot90 {
  dup /Times-Roman findfont exch scalefont setfont
  exch stringwidth pop -2 div exch 3 div exch rmoveto
 } bind def
/UncenterRot90 {
  dup /Times-Roman findfont exch scalefont setfont
  exch stringwidth } bind def
/Rot90 { gsave currentpoint translate 90 rotate } bind def
%%EndProlog
%%BeginSetup
1 setlinecap 1 setlinejoin 1 setlinewidth 0 setgray [ ] 0 setdash newpath
%%EndSetup
%%Page: 1 1 
/LigplotSave save def
 -1.00 -1.00 moveto  650.00  -1.00 lineto 650.00 951.00 lineto
  -1.00 951.00 lineto closepath
gsave 1.0000 setgray fill grestore
stroke gsave

% Background

G Background_col    
  30.00   50.00  550.00   50.00  550.00  780.00   30.00  780.00 Pl4

% Plot heading

Title_colour      
 290.00   64.60 moveto
(CB1italiangroup.pdb) Title_size Center
(CB1italiangroup.pdb) Title_size Print

% KEY TO SYMBOLS

gsave
/Default_linewidth {    0.200 } def
/Arc_linewidth {    0.750 } def
/Key_size {   18.615 } def
/Text_size {    9.855 } def
/Ligatom_radius  {    5.000 } def
/Nligatom_radius {    5.000 } def
/Ligbond_width   {    3.800 } def
/Nligbond_width  {    2.600 } def
/Hbond_width     {    1.400 } def
/HBtext_size     {    4.928 } def
/Hydrophnam_size {    7.391 } def
Key_Text_colour   
Default_linewidth W
  45.60  166.43 moveto
(Key) Key_size Print

% Ligand bond

gsave
Ligbond_width   W
Ligbond_colour    
  61.20  143.44   92.40  143.44 L
grestore
gsave
Atom_edge_col     
/Sphcol { Nitrogen_colour    } def
  61.20  143.44 Ligatom_radius  Sphere
/Sphcol { Carbon_colour      } def
  92.40  143.44 Ligatom_radius  Sphere
grestore
 108.00  140.98 moveto
(Ligand bond) Text_size Print

% Nonligand bond

gsave
Nligbond_width  W
Nligbond_colour   
 189.64  143.44  220.84  143.44 L
grestore
gsave
Atom_edge_col     
/Sphcol { Nitrogen_colour    } def
 189.64  143.44 Nligatom_radius Sphere
/Sphcol { Carbon_colour      } def
 220.84  143.44 Nligatom_radius Sphere
grestore
 236.44  140.98 moveto
(Non-ligand bond) Text_size Print

% Hydrogen bond

gsave
Hbond_colour      
Hbond_width     W
[  2  2 ] 0 setdash
 336.80  143.44  346.16  143.44 L
 368.00  143.44  355.52  143.44 L
[]  0 setdash
grestore
gsave
HBlength_col      
 352.40  143.44 moveto
(3.0) HBtext_size     Center
(3.0) HBtext_size     Print
grestore
gsave
Atom_edge_col     
/Sphcol { Nitrogen_colour    } def
 336.80  143.44 Ligatom_radius  Sphere
grestore
gsave
Atom_edge_col     
/Sphcol { Oxygen_colour      } def
 368.00  143.44 Nligatom_radius Sphere
grestore
 383.60  140.98 moveto
(Hydrogen bond and its length) Text_size Print

% Accessibility shades/colours

gsave
  57.04  115.79 moveto
(Solvent accessibility shading:) Text_size Print
/Circol {  0.8000  0.5000  0.0000 setrgbcolor } def
 202.64  118.25   15.00 Ucircle
/Circol { Background_col     } def
 202.64  118.25   10.50 Ucircle
gsave
Atom_edge_col     
/Sphcol { Nitrogen_colour    } def
 202.64  118.25 Ligatom_radius  Sphere
grestore
 225.00  115.79 moveto
(Buried) Text_size Print
/Circol {  0.9994  0.9984  0.0000 setrgbcolor } def
 269.20  118.25   10.95 Ucircle
/Circol { Background_col     } def
 269.20  118.25   10.50 Ucircle
gsave
Atom_edge_col     
/Sphcol { Nitrogen_colour    } def
 269.20  118.25 Ligatom_radius  Sphere
grestore
grestore
 290.00  115.79 moveto
(Highly accessible) Text_size Print
grestore
%convert -clip 520x652+30-50
%convert -crop 520x652+1+1

%  


% MAIN PLOT


% Scaled object and text sizes

/Ligatom_radius  {   12.115 } def
/Nligatom_radius {   12.115 } def
/Water_radius    {   14.685 } def
/Hphobic_radius  {   42.218 } def
/Simple_radius   {   29.369 } def
/Ligbond_width   {    6.975 } def
/Nligbond_width  {    4.772 } def
/Hbond_width     {    2.570 } def
/Ext_bond_width  {    2.570 } def
/Default_linewidth {    0.200 } def
/Arc_linewidth     {    0.750 } def
/Simple_width      {    2.937 } def
/Ligresname_size {   29.369 } def
/Nligresnam_size {   23.128 } def
/Watername_size  {   18.356 } def
/Hydrophnam_size {   18.356 } def
/Simpletext_size {   18.356 } def
/Ligatmname_size {   11.381 } def
/Nligatmnam_size {   11.381 } def
/HBtext_size     {   16.153 } def

% Atomic accessibilities

/Circol {  0.8000  0.5000  0.0000 setrgbcolor } def
 322.00  350.26   48.46 Ucircle
/Circol {  0.8000  0.5000  0.0000 setrgbcolor } def
 368.41  371.38   48.46 Ucircle
/Circol {  0.8000  0.5000  0.0000 setrgbcolor } def
 202.46  531.59   48.46 Ucircle
/Circol {  0.8000  0.5000  0.0000 setrgbcolor } def
 241.19  508.65   48.46 Ucircle
/Circol {  0.8000  0.5000  0.0000 setrgbcolor } def
 377.40  585.80   48.46 Ucircle
/Circol {  0.8000  0.5000  0.0000 setrgbcolor } def
 377.54  534.44   48.46 Ucircle
/Circol {  0.8000  0.5000  0.0000 setrgbcolor } def
 333.23  611.02   48.46 Ucircle
/Circol {  0.8000  0.5000  0.0000 setrgbcolor } def
 333.54  507.37   48.46 Ucircle
/Circol {  0.8000  0.5000  0.0000 setrgbcolor } def
 331.68  453.47   48.46 Ucircle
/Circol {  0.8000  0.5000  0.0000 setrgbcolor } def
 289.34  534.06   48.46 Ucircle
/Circol {  0.8000  0.5000  0.0000 setrgbcolor } def
 373.12  422.66   48.46 Ucircle
/Circol {  0.8000  0.5000  0.0000 setrgbcolor } def
 285.89  430.37   48.46 Ucircle
/Circol {  0.8000  0.5000  0.0000 setrgbcolor } def
 280.36  379.39   48.46 Ucircle
/Circol {  0.8000  0.5000  0.0000 setrgbcolor } def
 317.41  300.41   48.46 Ucircle
/Circol {  0.8000  0.5000  0.0000 setrgbcolor } def
 242.01  457.75   48.46 Ucircle
/Circol {  0.8000  0.5000  0.0000 setrgbcolor } def
 289.10  585.68   48.46 Ucircle
/Circol {  0.8000  0.5000  0.0000 setrgbcolor } def
 333.16  660.99   48.46 Ucircle

% Blank out centres

/Circol { Background_col     } def
 322.00  350.26   33.92 Ucircle
 368.41  371.38   33.92 Ucircle
 202.46  531.59   33.92 Ucircle
 241.19  508.65   33.92 Ucircle
 377.40  585.80   33.92 Ucircle
 377.54  534.44   33.92 Ucircle
 333.23  611.02   33.92 Ucircle
 333.54  507.37   33.92 Ucircle
 331.68  453.47   33.92 Ucircle
 289.34  534.06   33.92 Ucircle
 373.12  422.66   33.92 Ucircle
 285.89  430.37   33.92 Ucircle
 280.36  379.39   33.92 Ucircle
 317.41  300.41   33.92 Ucircle
 242.01  457.75   33.92 Ucircle
 289.10  585.68   33.92 Ucircle
 333.16  660.99   33.92 Ucircle

% Hydrogen bond lines

gsave
Hbond_colour      
Hbond_width     W
[  3  3 ] 0 setdash
[]  0 setdash
grestore

% External bond lines

gsave
Ext_bond_colour   
Ext_bond_width  W
grestore

% Bond lines

gsave
Ligbond_colour    
Ligbond_width   W
 322.00  350.26  368.41  371.38 L
 3.49 W
 205.13  536.09  243.86  513.16 L
 199.80  527.09  238.53  504.15 L
Ligbond_width   W
Ligbond_width   W
 377.40  585.80  377.54  534.44 L
 377.40  585.80  333.23  611.02 L
 377.54  534.44  333.54  507.37 L
 333.54  507.37  331.68  453.47 L
 333.54  507.37  289.34  534.06 L
 331.68  453.47  373.12  422.66 L
 331.68  453.47  285.89  430.37 L
 373.12  422.66  368.41  371.38 L
 322.00  350.26  280.36  379.39 L
 3.49 W
 327.21  349.78  322.62  299.93 L
 316.79  350.73  312.21  300.89 L
Ligbond_width   W
Ligbond_width   W
 280.36  379.39  285.89  430.37 L
 3.49 W
 283.12  425.93  239.24  453.31 L
 288.66  434.81  244.78  462.19 L
Ligbond_width   W
Ligbond_width   W
 3.49 W
 236.78  457.67  235.96  508.57 L
 247.24  457.84  246.42  508.74 L
Ligbond_width   W
Ligbond_width   W
 241.19  508.65  289.34  534.06 L
 289.34  534.06  289.10  585.68 L
 289.10  585.68  333.23  611.02 L
 3.49 W
 328.00  611.02  327.93  660.98 L
 338.46  611.03  338.39  660.99 L
Ligbond_width   W
Ligbond_width   W
grestore

% Atoms

gsave
Default_linewidth W
Atom_edge_col     
/Sphcol { Carbon_colour      } def
 322.00  350.26 Ligatom_radius  Sphere
Ligatmname_col    
 306.09  334.35 moveto
( C  ) Ligatmname_size Center
( C  ) Ligatmname_size Print
Atom_edge_col     
/Sphcol { Carbon_colour      } def
 368.41  371.38 Ligatom_radius  Sphere
Ligatmname_col    
 384.32  387.29 moveto
( C  ) Ligatmname_size Center
( C  ) Ligatmname_size Print
Atom_edge_col     
/Sphcol { Oxygen_colour      } def
 202.46  531.59 Ligatom_radius  Sphere
Ligatmname_col    
 218.37  547.50 moveto
( O  ) Ligatmname_size Center
( O  ) Ligatmname_size Print
Atom_edge_col     
/Sphcol { Carbon_colour      } def
 241.19  508.65 Ligatom_radius  Sphere
Ligatmname_col    
 225.28  492.75 moveto
( C  ) Ligatmname_size Center
( C  ) Ligatmname_size Print
Atom_edge_col     
/Sphcol { Carbon_colour      } def
 377.40  585.80 Ligatom_radius  Sphere
Ligatmname_col    
 393.31  601.71 moveto
( C  ) Ligatmname_size Center
( C  ) Ligatmname_size Print
Atom_edge_col     
/Sphcol { Carbon_colour      } def
 377.54  534.44 Ligatom_radius  Sphere
Ligatmname_col    
 393.45  550.34 moveto
( C  ) Ligatmname_size Center
( C  ) Ligatmname_size Print
Atom_edge_col     
/Sphcol { Carbon_colour      } def
 333.23  611.02 Ligatom_radius  Sphere
Ligatmname_col    
 349.14  626.93 moveto
( C  ) Ligatmname_size Center
( C  ) Ligatmname_size Print
Atom_edge_col     
/Sphcol { Carbon_colour      } def
 333.54  507.37 Ligatom_radius  Sphere
Ligatmname_col    
 317.63  491.46 moveto
( C  ) Ligatmname_size Center
( C  ) Ligatmname_size Print
Atom_edge_col     
/Sphcol { Carbon_colour      } def
 331.68  453.47 Ligatom_radius  Sphere
Ligatmname_col    
 347.59  469.37 moveto
( C  ) Ligatmname_size Center
( C  ) Ligatmname_size Print
Atom_edge_col     
/Sphcol { Carbon_colour      } def
 289.34  534.06 Ligatom_radius  Sphere
Ligatmname_col    
 305.25  549.97 moveto
( C  ) Ligatmname_size Center
( C  ) Ligatmname_size Print
Atom_edge_col     
/Sphcol { Carbon_colour      } def
 373.12  422.66 Ligatom_radius  Sphere
Ligatmname_col    
 389.03  438.57 moveto
( C  ) Ligatmname_size Center
( C  ) Ligatmname_size Print
Atom_edge_col     
/Sphcol { Carbon_colour      } def
 285.89  430.37 Ligatom_radius  Sphere
Ligatmname_col    
 269.98  414.46 moveto
( C  ) Ligatmname_size Center
( C  ) Ligatmname_size Print
Atom_edge_col     
/Sphcol { Carbon_colour      } def
 280.36  379.39 Ligatom_radius  Sphere
Ligatmname_col    
 296.27  395.29 moveto
( C  ) Ligatmname_size Center
( C  ) Ligatmname_size Print
Atom_edge_col     
/Sphcol { Oxygen_colour      } def
 317.41  300.41 Ligatom_radius  Sphere
Ligatmname_col    
 333.32  316.32 moveto
( O  ) Ligatmname_size Center
( O  ) Ligatmname_size Print
Atom_edge_col     
/Sphcol { Oxygen_colour      } def
 242.01  457.75 Ligatom_radius  Sphere
Ligatmname_col    
 257.91  473.66 moveto
( O  ) Ligatmname_size Center
( O  ) Ligatmname_size Print
Atom_edge_col     
/Sphcol { Carbon_colour      } def
 289.10  585.68 Ligatom_radius  Sphere
Ligatmname_col    
 273.20  601.59 moveto
( C  ) Ligatmname_size Center
( C  ) Ligatmname_size Print
Atom_edge_col     
/Sphcol { Oxygen_colour      } def
 333.16  660.99 Ligatom_radius  Sphere
Ligatmname_col    
 349.07  676.90 moveto
( O  ) Ligatmname_size Center
( O  ) Ligatmname_size Print
grestore

% Hydrophobic interactions

gsave
Default_linewidth W
grestore

% Residue names

gsave
Ligresname_col    
 148.42  384.85 moveto
(Pup 999(A)) Ligresname_size Center
(Pup 999(A)) Ligresname_size Print
grestore


LigplotSave restore
showpage
%%Trailer
%%BoundingBox: 29 49 551 781
%%EOF
